{
  "name" : "ValidateUserPassword",
  "request" : {
    "url" : "/HBIServices.svc?wsdl",
    "method" : "POST",
      "bodyPatterns" : [ {
      "matches" : ".*<ns2:Password>.*</ns2:Password><ns2:UserName>.*</ns2:UserName>.*"
    } ]
  },
  "response" : {
    "status" : 200,
    "bodyFileName" : "HBIValidateUserPass.xml",
    "headers" : {
      "Server" : "Apache-Coyote/1.1",
      "Content-Type" : "text/xml;charset=utf-8"
    }
  }
}